<svg width="17" height="16" viewBox="0 0 17 16" fill="none" xmlns="http://www.w3.org/2000/svg">
<path d="M8.22852 0.744161C8.47981 0.418613 8.94207 0.418613 9.19336 0.744161L11.571 3.82435C11.7499 4.05619 11.9867 4.23671 12.2585 4.34487L15.7995 5.75357C16.1676 5.90001 16.3393 6.39009 16.1031 6.76769L14.0316 10.0801C13.8764 10.3283 13.7881 10.6133 13.7741 10.9061L13.5849 14.8569C13.5631 15.3128 13.1587 15.5789 12.7992 15.4774L9.14137 14.4444C8.85962 14.3648 8.56226 14.3648 8.28051 14.4444L4.62264 15.4774C4.26321 15.5789 3.8588 15.3128 3.83697 14.8569L3.64778 10.9061C3.63376 10.6133 3.54547 10.3283 3.39024 10.0801L1.31875 6.76769C1.0826 6.39009 1.25432 5.90001 1.62242 5.75357L5.16336 4.34487C5.43522 4.23671 5.67195 4.05619 5.8509 3.82435L8.22852 0.744161Z" fill="#13022B" stroke="#C8FF00"/>
</svg>
