<svg width="24" height="24" viewBox="0 0 24 24" fill="none" xmlns="http://www.w3.org/2000/svg">
<path d="M21.6635 7.93125C21.1376 6.67623 20.3727 5.5355 19.4111 4.57265C18.4525 3.60813 17.3138 2.84127 16.0596 2.31562C14.7748 1.77452 13.3943 1.49716 12.0002 1.5H11.9533C10.5354 1.50703 9.16427 1.78828 7.87286 2.3414C6.62944 2.87244 5.50139 3.64066 4.55177 4.60312C3.59958 5.56381 2.84335 6.70055 2.32521 7.95C1.78735 9.24928 1.51482 10.643 1.52365 12.0492C1.53068 13.6758 1.91974 15.2906 2.6463 16.7344V20.2969C2.6463 20.8922 3.12911 21.375 3.72208 21.375H7.2799C8.73038 22.1069 10.331 22.492 11.9557 22.5H12.0049C13.4065 22.5 14.7635 22.2281 16.0432 21.6961C17.291 21.1767 18.4255 20.4188 19.383 19.4648C20.3486 18.5062 21.108 17.3859 21.6401 16.1367C22.1908 14.843 22.4721 13.4672 22.4791 12.0469C22.4838 10.6195 22.2072 9.23437 21.6635 7.93125ZM7.32208 13.125C6.70333 13.125 6.19943 12.6211 6.19943 12C6.19943 11.3789 6.70333 10.875 7.32208 10.875C7.94083 10.875 8.44474 11.3789 8.44474 12C8.44474 12.6211 7.94318 13.125 7.32208 13.125ZM12.0002 13.125C11.3815 13.125 10.8776 12.6211 10.8776 12C10.8776 11.3789 11.3815 10.875 12.0002 10.875C12.619 10.875 13.1229 11.3789 13.1229 12C13.1229 12.6211 12.619 13.125 12.0002 13.125ZM16.6783 13.125C16.0596 13.125 15.5557 12.6211 15.5557 12C15.5557 11.3789 16.0596 10.875 16.6783 10.875C17.2971 10.875 17.801 11.3789 17.801 12C17.801 12.6211 17.2971 13.125 16.6783 13.125Z" fill="#2C4064"/>
</svg>
