<svg width="24" height="24" viewBox="0 0 24 24" fill="none" xmlns="http://www.w3.org/2000/svg">
<path d="M10.5 9C10.5 9.82843 9.82843 10.5 9 10.5C8.17157 10.5 7.5 9.82843 7.5 9C7.5 8.17157 8.17157 7.5 9 7.5C9.82843 7.5 10.5 8.17157 10.5 9Z" fill="#C8FF00"/>
<path d="M17.25 9C17.25 9.82843 16.5784 10.5 15.75 10.5C14.9216 10.5 14.25 9.82843 14.25 9C14.25 8.17157 14.9216 7.5 15.75 7.5C16.5784 7.5 17.25 8.17157 17.25 9Z" fill="#C8FF00"/>
<path fill-rule="evenodd" clip-rule="evenodd" d="M7.16475 14.3293C7.53524 14.1441 7.98574 14.2943 8.17098 14.6648L7.50016 15.0002C8.17098 14.6648 8.17077 14.6643 8.17056 14.6639L8.17016 14.6631L8.16943 14.6617L8.16825 14.6593L8.16704 14.657C8.16675 14.6565 8.1675 14.6579 8.16933 14.6612C8.17299 14.6678 8.18095 14.6818 8.19353 14.7021C8.21871 14.7428 8.26219 14.8085 8.32655 14.8913C8.4553 15.0568 8.66659 15.289 8.98141 15.5252C9.60159 15.9903 10.6624 16.5002 12.3752 16.5002C13.7728 16.5002 14.733 16.1606 15.3723 15.7878C15.7301 15.5791 16.1893 15.7 16.398 16.0578C16.6067 16.4156 16.4858 16.8748 16.128 17.0835C15.2519 17.5945 14.0295 18.0002 12.3752 18.0002C10.3379 18.0002 8.96124 17.385 8.08141 16.7252C7.64624 16.3988 7.3419 16.0685 7.14253 15.8122C7.04282 15.684 6.96912 15.574 6.91813 15.4916C6.89262 15.4504 6.87274 15.416 6.8581 15.3897C6.85077 15.3765 6.84475 15.3653 6.83997 15.3562L6.83374 15.3442L6.83132 15.3395L6.83027 15.3374L6.82979 15.3365C6.82957 15.336 6.82934 15.3356 7.50016 15.0002L6.82934 15.3356C6.6441 14.9651 6.79427 14.5146 7.16475 14.3293Z" fill="#C8FF00"/>
<path fill-rule="evenodd" clip-rule="evenodd" d="M14.4 1.5H12C9.12917 1.5 7.12694 1.50319 5.61624 1.70629C4.14869 1.9036 3.37155 2.26449 2.81802 2.81802C2.26449 3.37155 1.9036 4.14869 1.70629 5.61624C1.50319 7.12694 1.5 9.12917 1.5 12V14.4C1.5 16.1049 1.50117 17.2934 1.57676 18.2186C1.65093 19.1264 1.78919 19.6479 1.99047 20.043C2.4219 20.8897 3.11031 21.5781 3.95704 22.0095C4.35208 22.2108 4.87361 22.3491 5.78136 22.4232C6.70662 22.4988 7.89509 22.5 9.6 22.5C12.145 22.5 13.9635 22.4988 15.389 22.3824C16.797 22.2673 17.689 22.0473 18.4049 21.6825C19.8161 20.9635 20.9635 19.8161 21.6825 18.4049C22.0473 17.689 22.2673 16.797 22.3824 15.389C22.4988 13.9635 22.5 12.145 22.5 9.6C22.5 7.89509 22.4988 6.70662 22.4232 5.78136C22.3491 4.87361 22.2108 4.35208 22.0095 3.95704C21.5781 3.11031 20.8897 2.4219 20.043 1.99047C19.6479 1.78919 19.1264 1.65093 18.2186 1.57676C17.2934 1.50117 16.1049 1.5 14.4 1.5ZM1.75736 1.75736C0 3.51472 0 6.34315 0 12V14.4C0 17.7603 0 19.4405 0.653961 20.7239C1.2292 21.8529 2.14708 22.7708 3.27606 23.346C4.55953 24 6.23969 24 9.6 24C14.6405 24 17.1607 24 19.0859 23.0191C20.7794 22.1562 22.1562 20.7794 23.0191 19.0859C24 17.1607 24 14.6405 24 9.6C24 6.23969 24 4.55953 23.346 3.27606C22.7708 2.14708 21.8529 1.2292 20.7239 0.653961C19.4405 0 17.7603 0 14.4 0H12C6.34315 0 3.51472 0 1.75736 1.75736Z" fill="#C8FF00"/>
<path fill-rule="evenodd" clip-rule="evenodd" d="M14.25 19.5C14.25 16.1863 16.9363 13.5 20.25 13.5H23.25V15H20.25C17.7647 15 15.75 17.0147 15.75 19.5V23.25H14.25V19.5Z" fill="#C8FF00"/>
</svg>
