<svg width="16" height="16" viewBox="0 0 16 16" fill="none" xmlns="http://www.w3.org/2000/svg">
<g opacity="0.5">
<path d="M14.4664 13.5333L10.8664 9.93334C12.4664 7.86668 12.3331 4.80001 10.3997 2.86668C9.39974 1.86668 8.06641 1.33334 6.66641 1.33334C5.26641 1.33334 3.93307 1.86668 2.86641 2.86668C0.799739 4.93334 0.799739 8.33334 2.86641 10.4C3.93307 11.4667 5.26641 12 6.66641 12C7.86641 12 8.99974 11.6 9.93307 10.8667L13.5331 14.4667C13.6664 14.6 13.8664 14.6667 13.9997 14.6667C14.1997 14.6667 14.3331 14.6 14.4664 14.4667C14.7331 14.2 14.7331 13.8 14.4664 13.5333ZM3.86641 9.46668C2.33307 7.93334 2.33307 5.40001 3.86641 3.80001C4.59974 3.06668 5.59974 2.66668 6.66641 2.66668C7.73307 2.66668 8.73307 3.06668 9.46641 3.86668C10.9997 5.40001 10.9997 7.93334 9.46641 9.53334C8.73307 10.2667 7.73307 10.6667 6.66641 10.6667C5.59974 10.6667 4.59974 10.2667 3.86641 9.46668Z" fill="white"/>
</g>
</svg>
