<svg width="17" height="16" viewBox="0 0 17 16" fill="none" xmlns="http://www.w3.org/2000/svg">
<path d="M14.3375 3.59687L12.6734 1.93438C12.5561 1.81647 12.4165 1.72293 12.2629 1.65911C12.1092 1.59529 11.9445 1.56246 11.7781 1.5625C11.4391 1.5625 11.1203 1.69531 10.8813 1.93438L9.09063 3.725C8.97272 3.84238 8.87918 3.98191 8.81536 4.13555C8.75154 4.2892 8.71871 4.45394 8.71875 4.62031C8.71875 4.95938 8.85156 5.27813 9.09063 5.51719L10.4 6.82656C10.0935 7.50213 9.66738 8.1167 9.14219 8.64062C8.61831 9.16709 8.00379 9.59477 7.32813 9.90312L6.01875 8.59375C5.90137 8.47585 5.76184 8.3823 5.6082 8.31849C5.45455 8.25467 5.28981 8.22184 5.12344 8.22188C4.78438 8.22188 4.46563 8.35469 4.22656 8.59375L2.43438 10.3828C2.31633 10.5004 2.2227 10.6402 2.15888 10.7941C2.09506 10.948 2.06231 11.1131 2.0625 11.2797C2.0625 11.6188 2.19531 11.9375 2.43438 12.1766L4.09531 13.8375C4.47656 14.2203 5.00313 14.4375 5.54375 14.4375C5.65781 14.4375 5.76719 14.4281 5.875 14.4094C7.98125 14.0625 10.0703 12.9422 11.7563 11.2578C13.4406 9.575 14.5594 7.4875 14.9109 5.375C15.0172 4.72969 14.8031 4.06562 14.3375 3.59687Z" fill="#8C8C8C"/>
</svg>
