<svg width="24" height="24" viewBox="0 0 24 24" fill="none" xmlns="http://www.w3.org/2000/svg">
<g clip-path="url(#clip0_2566_6287)">
<path d="M18.9502 14.7848C18.4792 13.8029 16.7942 12.4398 15.1662 11.1228C14.2582 10.3888 13.4002 9.69483 12.8532 9.14784C12.7162 9.00984 12.5112 8.96583 12.3302 9.03084C11.9932 9.15286 11.7852 9.24684 11.6212 9.31983C11.3712 9.43181 11.2872 9.46983 10.9502 9.50381C10.8012 9.51881 10.6672 9.59883 10.5842 9.72281C9.8772 10.7798 9.1452 10.6898 8.6562 10.5258C8.5002 10.4738 8.47221 10.4068 8.45721 10.3428C8.35221 9.90384 8.87923 8.88183 9.5622 8.19881C11.1872 6.57281 12.0252 6.1658 13.7952 6.95681C15.8032 7.8548 17.8152 8.55783 17.8352 8.56481C18.0982 8.6558 18.3812 8.5178 18.4722 8.2568C18.5622 7.9958 18.4252 7.7108 18.1642 7.61981C18.1442 7.61283 16.1722 6.92381 14.2042 6.0428C11.9112 5.01778 10.6532 5.69278 8.85616 7.49081C8.17216 8.17481 7.24315 9.5588 7.48315 10.5738C7.58613 11.0058 7.89017 11.3258 8.34213 11.4748C9.47515 11.8488 10.5091 11.4908 11.2791 10.4688C11.5971 10.4198 11.7702 10.3478 12.0301 10.2308C12.1241 10.1888 12.2341 10.1399 12.3801 10.0808C12.9521 10.6178 13.7241 11.2428 14.5371 11.8998C16.0071 13.0888 17.6742 14.4368 18.0492 15.2168C18.2342 15.6018 18.0351 15.8528 17.9001 15.9678C17.7021 16.1378 17.4312 16.1918 17.2842 16.0888C17.1222 15.9778 16.9112 15.9708 16.7441 16.0708C16.5761 16.1708 16.4822 16.3598 16.5032 16.5538C16.5371 16.8718 16.2462 17.0538 16.1201 17.1168C15.8001 17.2788 15.4661 17.2508 15.3411 17.1348C15.2011 17.0048 15.0001 16.9668 14.8221 17.0328C14.6441 17.0998 14.5201 17.2638 14.5021 17.4538C14.4721 17.7818 14.2291 18.0968 13.9121 18.2198C13.7591 18.2778 13.5371 18.3128 13.3381 18.1308C13.2141 18.0188 13.0421 17.9758 12.8811 18.0148C12.7182 18.0548 12.5871 18.1728 12.5301 18.3298C12.5111 18.3798 12.4681 18.4998 12.0001 18.4998C11.6671 18.4998 11.0681 18.2748 10.7751 18.0808C10.4241 17.8498 8.22312 16.2078 6.32215 14.6158C6.05515 14.3908 5.59315 13.9088 5.18515 13.4828C4.82313 13.1048 4.49215 12.7618 4.32213 12.6178C4.10913 12.4378 3.79413 12.4648 3.61713 12.6768C3.43915 12.8878 3.46512 13.2038 3.67615 13.3818C3.83117 13.5128 4.13117 13.8298 4.46215 14.1748C4.90817 14.6408 5.36913 15.1228 5.67917 15.3828C7.54118 16.9418 9.77918 18.6248 10.2251 18.9178C10.5932 19.1598 11.3861 19.4998 12.0002 19.4998C12.4931 19.4998 12.8722 19.3868 13.1352 19.1658C13.4871 19.3028 13.8872 19.3038 14.2722 19.1538C14.7272 18.9778 15.1011 18.6228 15.3132 18.1928C15.7071 18.2768 16.1582 18.2178 16.5681 18.0118C16.9692 17.8098 17.2591 17.5008 17.4031 17.1398C17.8011 17.1608 18.2111 17.0198 18.5501 16.7288C19.1242 16.2378 19.2821 15.4739 18.9502 14.7848Z" fill="#C8FF00"/>
<path d="M10 6.49983H5.50002C5.22402 6.49983 5 6.72384 5 6.99984C5 7.27584 5.22402 7.49986 5.50002 7.49986H10C10.276 7.49986 10.5 7.27584 10.5 6.99984C10.5 6.72384 10.276 6.49983 10 6.49983Z" fill="#C8FF00"/>
<path d="M20.4151 13.7208C20.2601 13.4918 19.9501 13.4288 19.7211 13.5848L18.2591 14.5668C18.0301 14.7208 17.9691 15.0318 18.1231 15.2608C18.2201 15.4038 18.3781 15.4818 18.5391 15.4818C18.6342 15.4818 18.7311 15.4548 18.8172 15.3968L20.2791 14.4149C20.5081 14.2608 20.5691 13.9499 20.4151 13.7208Z" fill="#C8FF00"/>
<path d="M17.3112 16.1069C16.9532 15.8249 15.3522 14.1859 14.3622 13.1539C14.1712 12.9539 13.8542 12.9469 13.6552 13.1389C13.4552 13.3299 13.4492 13.6469 13.6402 13.8459C13.8972 14.1139 16.1642 16.4769 16.6912 16.8929C16.7822 16.9649 16.8922 16.9999 17.0002 16.9999C17.1472 16.9999 17.2942 16.9339 17.3942 16.8089C17.5652 16.5929 17.5283 16.2779 17.3112 16.1069Z" fill="#C8FF00"/>
<path d="M15.3127 17.1098C14.7137 16.6308 13.2088 15.0318 12.8687 14.6618C12.6807 14.4578 12.3657 14.4458 12.1617 14.6318C11.9587 14.8188 11.9447 15.1358 12.1317 15.3389C12.1497 15.3578 13.9457 17.2969 14.6877 17.8909C14.7797 17.9638 14.8907 17.9998 14.9997 17.9998C15.1457 17.9998 15.2917 17.9348 15.3907 17.8129C15.5628 17.5968 15.5277 17.2818 15.3127 17.1098Z" fill="#C8FF00"/>
<path d="M13.3235 18.1169C12.6105 17.5159 11.1515 15.9629 10.8665 15.6578C10.6775 15.4559 10.3605 15.4448 10.1595 15.6338C9.95752 15.8228 9.94749 16.1388 10.1355 16.3409C10.5455 16.7798 11.9415 18.2599 12.6785 18.8819C12.7725 18.9609 12.8865 18.9999 13.0005 18.9999C13.1425 18.9999 13.2845 18.9389 13.3835 18.8219C13.5615 18.6099 13.5345 18.2949 13.3235 18.1169Z" fill="#C8FF00"/>
<path d="M5.844 5.63686C4.98698 4.82484 1.56 4.56183 0.530016 4.50084C0.388031 4.49386 0.257016 4.54083 0.157031 4.63584C0.057 4.72983 0 4.86183 0 4.99983V13.9998C0 14.2758 0.224016 14.4998 0.500016 14.4998H3.50002C3.71602 14.4998 3.90802 14.3609 3.975 14.1548C4.04798 13.9308 5.77102 8.64286 5.99798 6.04284C6.01102 5.89083 5.955 5.74083 5.844 5.63686ZM3.135 13.4999H0.999984V5.53584C2.607 5.66283 4.341 5.93883 4.971 6.24483C4.70602 8.43483 3.507 12.3258 3.135 13.4999Z" fill="#C8FF00"/>
<path d="M23.5007 5.49984C19.5747 5.49984 17.3967 6.50484 17.3057 6.54684C17.1758 6.60783 17.0787 6.72084 17.0387 6.85786C16.9988 6.99487 17.0187 7.14188 17.0937 7.26384C17.7117 8.25886 19.6467 13.7849 20.0187 15.1328C20.0787 15.3498 20.2757 15.4998 20.5007 15.4998H23.5007C23.7767 15.4998 24.0007 15.2758 24.0007 14.9998V5.99981C24.0007 5.72283 23.7767 5.49984 23.5007 5.49984ZM23.0008 14.4998H20.8748C20.4008 12.9558 19.0007 8.92983 18.2198 7.26586C18.9827 7.00688 20.6218 6.56184 23.0008 6.50588V14.4998Z" fill="#C8FF00"/>
</g>
<defs>
<clipPath id="clip0_2566_6287">
<rect width="24" height="24" fill="white"/>
</clipPath>
</defs>
</svg>
